[
    {
        "name": "webmodules/webcomponentsjs",
        "version": "dev-master",
        "version_normalized": "9999999-dev",
        "source": {
            "type": "git",
            "url": "https://gitlab.com/webmodules/webcomponentsjs.git",
            "reference": "a7ae34122c3db1149a25436c5e486b549dc52a95"
        },
        "time": "2015-05-04 17:59:17",
        "type": "library",
        "installation-source": "source",
        "notification-url": "https://packagist.org/downloads/",
        "license": [
            "MIT"
        ],
        "description": "A suite of polyfills supporting the HTML Web Components specs: http://webcomponents.org/polyfills/",
        "keywords": [
            "api",
            "rudra"
        ]
    },
    {
        "name": "pitana/pitana.js",
        "version": "dev-master",
        "version_normalized": "9999999-dev",
        "source": {
            "type": "git",
            "url": "https://github.com/pitana/pitana.js.git",
            "reference": "49641a4113a13d20dfc5f4123ac57d6c57a6a2ca"
        },
        "dist": {
            "type": "zip",
            "url": "https://api.github.com/repos/pitana/pitana.js/zipball/49641a4113a13d20dfc5f4123ac57d6c57a6a2ca",
            "reference": "49641a4113a13d20dfc5f4123ac57d6c57a6a2ca",
            "shasum": ""
        },
        "require": {
            "webmodules/webcomponentsjs": ">=0.5.2"
        },
        "time": "2015-05-03 09:41:43",
        "type": "library",
        "installation-source": "source",
        "notification-url": "https://packagist.org/downloads/",
        "license": [
            "MIT"
        ],
        "description": "pitana.js, framework for developing large scale modular JavaScript applications using Custom Elements",
        "keywords": [
            "framework",
            "scalable",
            "webcomponents"
        ]
    },
    {
        "name": "webmodules/foo",
        "version": "dev-master",
        "version_normalized": "9999999-dev",
        "source": {
            "type": "git",
            "url": "https://github.com/webmodule/foo.git",
            "reference": "46b04031ff60737a59ace1a1603bd07ea7b593df"
        },
        "dist": {
            "type": "zip",
            "url": "https://api.github.com/repos/webmodule/foo/zipball/46b04031ff60737a59ace1a1603bd07ea7b593df",
            "reference": "46b04031ff60737a59ace1a1603bd07ea7b593df",
            "shasum": ""
        },
        "time": "2015-06-25 08:24:14",
        "type": "library",
        "installation-source": "source",
        "notification-url": "https://packagist.org/downloads/",
        "license": [
            "MIT"
        ],
        "description": "Module loader interface and polyfills",
        "keywords": [
            "module",
            "polyfills"
        ]
    },
    {
        "name": "webmodules/jquery",
        "version": "dev-master",
        "version_normalized": "9999999-dev",
        "source": {
            "type": "git",
            "url": "https://github.com/webmodule/jquery.git",
            "reference": "66245cdf05fd88e1f260d32a81c1f092ec223320"
        },
        "dist": {
            "type": "zip",
            "url": "https://api.github.com/repos/webmodule/jquery/zipball/66245cdf05fd88e1f260d32a81c1f092ec223320",
            "reference": "66245cdf05fd88e1f260d32a81c1f092ec223320",
            "shasum": ""
        },
        "time": "2015-06-16 08:33:47",
        "type": "library",
        "installation-source": "source",
        "notification-url": "https://packagist.org/downloads/",
        "license": [
            "MIT"
        ],
        "description": "JQuery Fork with module.json",
        "keywords": [
            "api",
            "rudra"
        ]
    },
    {
        "name": "jqgeeks/utils",
        "version": "dev-master",
        "version_normalized": "9999999-dev",
        "source": {
            "type": "git",
            "url": "https://gitlab.com/jqgeeks/utils.git",
            "reference": "c48facf8c5554456f90c1b50b4aa1967d1f7f068"
        },
        "require": {
            "webmodules/foo": ">=0.0.8",
            "webmodules/jquery": ">=1.3.0"
        },
        "time": "2015-06-29 08:06:04",
        "type": "library",
        "installation-source": "source",
        "notification-url": "https://packagist.org/downloads/",
        "license": [
            "MIT"
        ],
        "description": "JQuery Utilitties compatible with rudrax framework",
        "keywords": [
            "api",
            "rudra"
        ]
    },
    {
        "name": "jqgeeks/jqtag",
        "version": "dev-master",
        "version_normalized": "9999999-dev",
        "source": {
            "type": "git",
            "url": "https://gitlab.com/jqgeeks/jqtag.git",
            "reference": "67f9bba3aee0f6b32219b42f7ad3b8653b3a1c1c"
        },
        "require": {
            "jqgeeks/utils": ">=1.1.3",
            "pitana/pitana.js": "dev-master",
            "webmodules/webcomponentsjs": ">=0.5.2"
        },
        "time": "2015-06-12 14:50:43",
        "type": "library",
        "installation-source": "source",
        "notification-url": "https://packagist.org/downloads/",
        "license": [
            "MIT"
        ],
        "description": "A tag library to comply with jqgeeks/utils",
        "keywords": [
            "polymers",
            "x-tags"
        ]
    },
    {
        "name": "jqmodules/smart_autocomplete",
        "version": "dev-master",
        "version_normalized": "9999999-dev",
        "source": {
            "type": "git",
            "url": "https://gitlab.com/jqmodules/jQuery-Smart-Auto-Complete.git",
            "reference": "f6f5e29b4a2af0f96b2f5e54e00ec0dde3e4822e"
        },
        "require": {
            "webmodules/jquery": ">=0.0.0"
        },
        "time": "2015-05-12 16:54:12",
        "type": "tag",
        "installation-source": "source",
        "notification-url": "https://packagist.org/downloads/",
        "license": [
            "MIT"
        ],
        "description": "fancy select box",
        "keywords": [
            "jquery"
        ]
    },
    {
        "name": "jqtags/jq-select",
        "version": "dev-master",
        "version_normalized": "9999999-dev",
        "source": {
            "type": "git",
            "url": "https://gitlab.com/jqtags/jq-select.git",
            "reference": "79591572e200d40d87d8920e0e25552a4f0ab148"
        },
        "require": {
            "jqgeeks/jqtag": ">=0.0.0",
            "jqmodules/smart_autocomplete": ">=0.0.0"
        },
        "time": "2015-05-12 16:43:52",
        "type": "tag",
        "installation-source": "source",
        "notification-url": "https://packagist.org/downloads/",
        "license": [
            "MIT"
        ],
        "description": "fancy select box",
        "keywords": [
            "pitana",
            "polymer",
            "x-tag"
        ]
    },
    {
        "name": "jqtags/jq-switch",
        "version": "dev-master",
        "version_normalized": "9999999-dev",
        "source": {
            "type": "git",
            "url": "https://gitlab.com/jqtags/jq-switch.git",
            "reference": "cf3c9850d87eaf70e59655a788e3eeee10237c82"
        },
        "require": {
            "jqgeeks/jqtag": ">=0.0.0"
        },
        "time": "2015-06-09 19:06:26",
        "type": "tag",
        "installation-source": "source",
        "notification-url": "https://packagist.org/downloads/",
        "license": [
            "MIT"
        ],
        "description": "fancy switch/checkbox button",
        "keywords": [
            "pitana",
            "polymer",
            "x-tag"
        ]
    },
    {
        "name": "aertrip/assignment",
        "version": "master",
        "version_normalized": "9999999-dev",
        "source": {
            "type": "git",
            "url": "https://gitlab.com/laniam-aertrip/assignment.git",
            "reference": "master"
        },
        "type": "library",
        "installation-source": "source"
    },
    {
        "name": "rudrax/magicmin",
        "version": "2.5.4",
        "version_normalized": "2.5.4.0",
        "source": {
            "type": "git",
            "url": "https://gitlab.com/rudrax/magicmin.git",
            "reference": "f56e6257fe822a15d5d199f681e79c9ec67b47a9"
        },
        "require": {
            "php": ">=5.3.0"
        },
        "time": "2015-06-28 17:25:30",
        "type": "library",
        "installation-source": "source",
        "autoload": {
            "psr-4": {
                "MagicMin\\": ""
            }
        },
        "notification-url": "https://packagist.org/downloads/",
        "license": [
            "MIT"
        ],
        "description": "Assest minifier utils",
        "keywords": [
            "api",
            "css",
            "javascript"
        ]
    },
    {
        "name": "rudrax/annotations",
        "version": "1.0.0",
        "version_normalized": "1.0.0.0",
        "source": {
            "type": "git",
            "url": "https://github.com/rudraks/annotations.git",
            "reference": "f444741dbfb5f39541bc448178a174839f2f5646"
        },
        "dist": {
            "type": "zip",
            "url": "https://api.github.com/repos/rudraks/annotations/zipball/f444741dbfb5f39541bc448178a174839f2f5646",
            "reference": "f444741dbfb5f39541bc448178a174839f2f5646",
            "shasum": ""
        },
        "time": "2015-03-27 13:10:22",
        "type": "library",
        "installation-source": "dist",
        "notification-url": "https://packagist.org/downloads/",
        "license": [
            "MIT"
        ],
        "description": "Script to scan all classes in Project;",
        "keywords": [
            "api",
            "controller",
            "rudra",
            "smarty"
        ]
    },
    {
        "name": "rudrax/phpfastcache",
        "version": "2.0.0",
        "version_normalized": "2.0.0.0",
        "source": {
            "type": "git",
            "url": "https://gitlab.com/rudrax/phpfastcache.git",
            "reference": "58c1f2681b3f727f8baf71c673f48d1edf33b30b"
        },
        "time": "2014-07-23 15:09:34",
        "type": "library",
        "installation-source": "source",
        "notification-url": "https://packagist.org/downloads/",
        "license": [
            "MIT"
        ],
        "description": "Modified Smarty for Rudrax",
        "keywords": [
            "api",
            "controller",
            "rudra",
            "smarty"
        ]
    },
    {
        "name": "jqmodules/jq2much",
        "version": "dev-master",
        "version_normalized": "9999999-dev",
        "source": {
            "type": "git",
            "url": "https://github.com/jqmodules/jq2much.git",
            "reference": "1514e19669f3d47c83ebed1eb38089033e33fced"
        },
        "dist": {
            "type": "zip",
            "url": "https://api.github.com/repos/jqmodules/jq2much/zipball/1514e19669f3d47c83ebed1eb38089033e33fced",
            "reference": "1514e19669f3d47c83ebed1eb38089033e33fced",
            "shasum": ""
        },
        "require": {
            "webmodules/foo": ">=0.0.0",
            "webmodules/jquery": ">=1.8"
        },
        "time": "2015-06-02 20:11:28",
        "type": "utility",
        "installation-source": "source",
        "notification-url": "https://packagist.org/downloads/",
        "license": [
            "MIT"
        ],
        "description": "Extension api to jQuery",
        "keywords": [
            "javascript"
        ]
    },
    {
        "name": "jqtags/jq-tab",
        "version": "dev-master",
        "version_normalized": "9999999-dev",
        "source": {
            "type": "git",
            "url": "https://gitlab.com/jqtags/jq-tab.git",
            "reference": "e1389a2e1d776307eb4396faad53d99605a5d545"
        },
        "require": {
            "jqgeeks/jqtag": ">=0.0.0",
            "jqmodules/jq2much": ">=0.0.0"
        },
        "time": "2015-06-24 17:09:09",
        "type": "tag",
        "installation-source": "source",
        "notification-url": "https://packagist.org/downloads/",
        "license": [
            "MIT"
        ],
        "description": "fancy bootstrap tab",
        "keywords": [
            "pitana",
            "polymer",
            "x-tag"
        ]
    },
    {
        "name": "jqgeeks/tunnel",
        "version": "dev-master",
        "version_normalized": "9999999-dev",
        "source": {
            "type": "git",
            "url": "https://gitlab.com/jqgeeks/tunnel.git",
            "reference": "fe38ca5f93693ec13783a62e71996368cd5743b8"
        },
        "require": {
            "jqgeeks/utils": ">=1.0.0"
        },
        "time": "2015-05-08 15:40:35",
        "type": "library",
        "installation-source": "source",
        "notification-url": "https://packagist.org/downloads/",
        "license": [
            "MIT"
        ],
        "description": "JQuery Utilitties compatible with rudrax framework",
        "keywords": [
            "api",
            "rudra"
        ]
    },
    {
        "name": "michelf/php-markdown",
        "version": "1.5.0",
        "version_normalized": "1.5.0.0",
        "source": {
            "type": "git",
            "url": "https://github.com/michelf/php-markdown.git",
            "reference": "e1aabe18173231ebcefc90e615565742fc1c7fd9"
        },
        "dist": {
            "type": "zip",
            "url": "https://api.github.com/repos/michelf/php-markdown/zipball/e1aabe18173231ebcefc90e615565742fc1c7fd9",
            "reference": "e1aabe18173231ebcefc90e615565742fc1c7fd9",
            "shasum": ""
        },
        "require": {
            "php": ">=5.3.0"
        },
        "time": "2015-03-01 12:03:08",
        "type": "library",
        "extra": {
            "branch-alias": {
                "dev-lib": "1.4.x-dev"
            }
        },
        "installation-source": "dist",
        "autoload": {
            "psr-0": {
                "Michelf": ""
            }
        },
        "notification-url": "https://packagist.org/downloads/",
        "license": [
            "BSD-3-Clause"
        ],
        "authors": [
            {
                "name": "John Gruber",
                "homepage": "http://daringfireball.net/"
            },
            {
                "name": "Michel Fortin",
                "email": "michel.fortin@michelf.ca",
                "homepage": "https://michelf.ca/",
                "role": "Developer"
            }
        ],
        "description": "PHP Markdown",
        "homepage": "https://michelf.ca/projects/php-markdown/",
        "keywords": [
            "markdown"
        ]
    },
    {
        "name": "leafo/scssphp",
        "version": "dev-master",
        "version_normalized": "9999999-dev",
        "source": {
            "type": "git",
            "url": "https://github.com/leafo/scssphp.git",
            "reference": "57cfb337be75c6d34a755e060d31e633124aaff0"
        },
        "dist": {
            "type": "zip",
            "url": "https://api.github.com/repos/leafo/scssphp/zipball/57cfb337be75c6d34a755e060d31e633124aaff0",
            "reference": "57cfb337be75c6d34a755e060d31e633124aaff0",
            "shasum": ""
        },
        "require": {
            "php": ">=5.3.0"
        },
        "require-dev": {
            "phpunit/phpunit": "3.7.*",
            "squizlabs/php_codesniffer": "~2.3"
        },
        "time": "2015-06-29 01:06:20",
        "bin": [
            "bin/pscss"
        ],
        "type": "library",
        "installation-source": "source",
        "autoload": {
            "classmap": [
                "classmap.php"
            ],
            "psr-4": {
                "Leafo\\ScssPhp\\": "src/"
            }
        },
        "notification-url": "https://packagist.org/downloads/",
        "license": [
            "MIT",
            "GPL-3.0"
        ],
        "authors": [
            {
                "name": "Leaf Corcoran",
                "email": "leafot@gmail.com",
                "homepage": "http://leafo.net"
            }
        ],
        "description": "scssphp is a compiler for SCSS written in PHP.",
        "homepage": "http://leafo.net/scssphp/",
        "keywords": [
            "css",
            "less",
            "sass",
            "scss",
            "stylesheet"
        ]
    },
    {
        "name": "symfony/event-dispatcher",
        "version": "2.8.x-dev",
        "version_normalized": "2.8.9999999.9999999-dev",
        "source": {
            "type": "git",
            "url": "https://github.com/symfony/EventDispatcher.git",
            "reference": "d7246885b7fe4cb5a2786bda34362d2f0e40b730"
        },
        "dist": {
            "type": "zip",
            "url": "https://api.github.com/repos/symfony/EventDispatcher/zipball/d7246885b7fe4cb5a2786bda34362d2f0e40b730",
            "reference": "d7246885b7fe4cb5a2786bda34362d2f0e40b730",
            "shasum": ""
        },
        "require": {
            "php": ">=5.3.9"
        },
        "require-dev": {
            "psr/log": "~1.0",
            "symfony/config": "~2.0,>=2.0.5|~3.0.0",
            "symfony/dependency-injection": "~2.6|~3.0.0",
            "symfony/expression-language": "~2.6|~3.0.0",
            "symfony/phpunit-bridge": "~2.7|~3.0.0",
            "symfony/stopwatch": "~2.3|~3.0.0"
        },
        "suggest": {
            "symfony/dependency-injection": "",
            "symfony/http-kernel": ""
        },
        "time": "2015-06-24 15:32:32",
        "type": "library",
        "extra": {
            "branch-alias": {
                "dev-master": "2.8-dev"
            }
        },
        "installation-source": "source",
        "autoload": {
            "psr-4": {
                "Symfony\\Component\\EventDispatcher\\": ""
            }
        },
        "notification-url": "https://packagist.org/downloads/",
        "license": [
            "MIT"
        ],
        "authors": [
            {
                "name": "Fabien Potencier",
                "email": "fabien@symfony.com"
            },
            {
                "name": "Symfony Community",
                "homepage": "https://symfony.com/contributors"
            }
        ],
        "description": "Symfony EventDispatcher Component",
        "homepage": "https://symfony.com"
    },
    {
        "name": "symfony/filesystem",
        "version": "2.8.x-dev",
        "version_normalized": "2.8.9999999.9999999-dev",
        "source": {
            "type": "git",
            "url": "https://github.com/symfony/Filesystem.git",
            "reference": "5db575c1ad5f62363c098114cf482bbd5d15349a"
        },
        "dist": {
            "type": "zip",
            "url": "https://api.github.com/repos/symfony/Filesystem/zipball/5db575c1ad5f62363c098114cf482bbd5d15349a",
            "reference": "5db575c1ad5f62363c098114cf482bbd5d15349a",
            "shasum": ""
        },
        "require": {
            "php": ">=5.3.9"
        },
        "require-dev": {
            "symfony/phpunit-bridge": "~2.7|~3.0.0"
        },
        "time": "2015-06-18 16:14:27",
        "type": "library",
        "extra": {
            "branch-alias": {
                "dev-master": "2.8-dev"
            }
        },
        "installation-source": "source",
        "autoload": {
            "psr-4": {
                "Symfony\\Component\\Filesystem\\": ""
            }
        },
        "notification-url": "https://packagist.org/downloads/",
        "license": [
            "MIT"
        ],
        "authors": [
            {
                "name": "Fabien Potencier",
                "email": "fabien@symfony.com"
            },
            {
                "name": "Symfony Community",
                "homepage": "https://symfony.com/contributors"
            }
        ],
        "description": "Symfony Filesystem Component",
        "homepage": "https://symfony.com"
    },
    {
        "name": "symfony/config",
        "version": "2.8.x-dev",
        "version_normalized": "2.8.9999999.9999999-dev",
        "source": {
            "type": "git",
            "url": "https://github.com/symfony/Config.git",
            "reference": "cceb1141805d401e6f7d2e0b1365bf6a15917778"
        },
        "dist": {
            "type": "zip",
            "url": "https://api.github.com/repos/symfony/Config/zipball/cceb1141805d401e6f7d2e0b1365bf6a15917778",
            "reference": "cceb1141805d401e6f7d2e0b1365bf6a15917778",
            "shasum": ""
        },
        "require": {
            "php": ">=5.3.9",
            "symfony/filesystem": "~2.3|~3.0.0"
        },
        "require-dev": {
            "symfony/phpunit-bridge": "~2.7|~3.0.0"
        },
        "time": "2015-06-28 18:28:18",
        "type": "library",
        "extra": {
            "branch-alias": {
                "dev-master": "2.8-dev"
            }
        },
        "installation-source": "source",
        "autoload": {
            "psr-4": {
                "Symfony\\Component\\Config\\": ""
            }
        },
        "notification-url": "https://packagist.org/downloads/",
        "license": [
            "MIT"
        ],
        "authors": [
            {
                "name": "Fabien Potencier",
                "email": "fabien@symfony.com"
            },
            {
                "name": "Symfony Community",
                "homepage": "https://symfony.com/contributors"
            }
        ],
        "description": "Symfony Config Component",
        "homepage": "https://symfony.com"
    },
    {
        "name": "henrikbjorn/lurker",
        "version": "dev-master",
        "version_normalized": "9999999-dev",
        "source": {
            "type": "git",
            "url": "https://github.com/henrikbjorn/Lurker.git",
            "reference": "d13372695bf7853edc104bd6ee2ac3deaa92acc2"
        },
        "dist": {
            "type": "zip",
            "url": "https://api.github.com/repos/henrikbjorn/Lurker/zipball/d13372695bf7853edc104bd6ee2ac3deaa92acc2",
            "reference": "d13372695bf7853edc104bd6ee2ac3deaa92acc2",
            "shasum": ""
        },
        "require": {
            "php": ">=5.3.3",
            "symfony/config": "~2.2",
            "symfony/event-dispatcher": "~2.2"
        },
        "suggest": {
            "ext-inotify": ">=0.1.6"
        },
        "time": "2014-12-15 08:28:08",
        "type": "library",
        "extra": {
            "branch-alias": {
                "dev-master": "1.0.x-dev"
            }
        },
        "installation-source": "source",
        "autoload": {
            "psr-0": {
                "Lurker": "src"
            }
        },
        "notification-url": "https://packagist.org/downloads/",
        "license": [
            "MIT"
        ],
        "authors": [
            {
                "name": "Yaroslav Kiliba",
                "email": "om.dattaya@gmail.com"
            },
            {
                "name": "Konstantin Kudryashov",
                "email": "ever.zet@gmail.com"
            },
            {
                "name": "Henrik Bjrnskov",
                "email": "henrik@bjrnskov.dk"
            }
        ],
        "description": "Resource Watcher.",
        "keywords": [
            "filesystem",
            "resource",
            "watching"
        ]
    },
    {
        "name": "symfony/process",
        "version": "2.8.x-dev",
        "version_normalized": "2.8.9999999.9999999-dev",
        "source": {
            "type": "git",
            "url": "https://github.com/symfony/Process.git",
            "reference": "b0644109e5b3f01016dd01adb45db9f8e281453f"
        },
        "dist": {
            "type": "zip",
            "url": "https://api.github.com/repos/symfony/Process/zipball/b0644109e5b3f01016dd01adb45db9f8e281453f",
            "reference": "b0644109e5b3f01016dd01adb45db9f8e281453f",
            "shasum": ""
        },
        "require": {
            "php": ">=5.3.9"
        },
        "require-dev": {
            "symfony/phpunit-bridge": "~2.7|~3.0.0"
        },
        "time": "2015-06-19 15:09:14",
        "type": "library",
        "extra": {
            "branch-alias": {
                "dev-master": "2.8-dev"
            }
        },
        "installation-source": "source",
        "autoload": {
            "psr-4": {
                "Symfony\\Component\\Process\\": ""
            }
        },
        "notification-url": "https://packagist.org/downloads/",
        "license": [
            "MIT"
        ],
        "authors": [
            {
                "name": "Fabien Potencier",
                "email": "fabien@symfony.com"
            },
            {
                "name": "Symfony Community",
                "homepage": "https://symfony.com/contributors"
            }
        ],
        "description": "Symfony Process Component",
        "homepage": "https://symfony.com"
    },
    {
        "name": "symfony/console",
        "version": "2.8.x-dev",
        "version_normalized": "2.8.9999999.9999999-dev",
        "source": {
            "type": "git",
            "url": "https://github.com/symfony/Console.git",
            "reference": "2a909e48c528c7c9b22caff6ff622c6c69032bfc"
        },
        "dist": {
            "type": "zip",
            "url": "https://api.github.com/repos/symfony/Console/zipball/2a909e48c528c7c9b22caff6ff622c6c69032bfc",
            "reference": "2a909e48c528c7c9b22caff6ff622c6c69032bfc",
            "shasum": ""
        },
        "require": {
            "php": ">=5.3.9"
        },
        "require-dev": {
            "psr/log": "~1.0",
            "symfony/event-dispatcher": "~2.1|~3.0.0",
            "symfony/phpunit-bridge": "~2.7|~3.0.0",
            "symfony/process": "~2.1|~3.0.0"
        },
        "suggest": {
            "psr/log": "For using the console logger",
            "symfony/event-dispatcher": "",
            "symfony/process": ""
        },
        "time": "2015-06-22 16:34:55",
        "type": "library",
        "extra": {
            "branch-alias": {
                "dev-master": "2.8-dev"
            }
        },
        "installation-source": "source",
        "autoload": {
            "psr-4": {
                "Symfony\\Component\\Console\\": ""
            }
        },
        "notification-url": "https://packagist.org/downloads/",
        "license": [
            "MIT"
        ],
        "authors": [
            {
                "name": "Fabien Potencier",
                "email": "fabien@symfony.com"
            },
            {
                "name": "Symfony Community",
                "homepage": "https://symfony.com/contributors"
            }
        ],
        "description": "Symfony Console Component",
        "homepage": "https://symfony.com"
    },
    {
        "name": "symfony/finder",
        "version": "2.8.x-dev",
        "version_normalized": "2.8.9999999.9999999-dev",
        "source": {
            "type": "git",
            "url": "https://github.com/symfony/Finder.git",
            "reference": "588ded81facfb6462c43e6922509e3f8c889de05"
        },
        "dist": {
            "type": "zip",
            "url": "https://api.github.com/repos/symfony/Finder/zipball/588ded81facfb6462c43e6922509e3f8c889de05",
            "reference": "588ded81facfb6462c43e6922509e3f8c889de05",
            "shasum": ""
        },
        "require": {
            "php": ">=5.3.9"
        },
        "require-dev": {
            "symfony/phpunit-bridge": "~2.7|~3.0.0"
        },
        "time": "2015-06-18 16:14:27",
        "type": "library",
        "extra": {
            "branch-alias": {
                "dev-master": "2.8-dev"
            }
        },
        "installation-source": "source",
        "autoload": {
            "psr-4": {
                "Symfony\\Component\\Finder\\": ""
            }
        },
        "notification-url": "https://packagist.org/downloads/",
        "license": [
            "MIT"
        ],
        "authors": [
            {
                "name": "Fabien Potencier",
                "email": "fabien@symfony.com"
            },
            {
                "name": "Symfony Community",
                "homepage": "https://symfony.com/contributors"
            }
        ],
        "description": "Symfony Finder Component",
        "homepage": "https://symfony.com"
    },
    {
        "name": "codegyre/robo",
        "version": "dev-master",
        "version_normalized": "9999999-dev",
        "source": {
            "type": "git",
            "url": "https://github.com/Codegyre/Robo.git",
            "reference": "7f929f2bd2aa166784473cea1831171c021b629c"
        },
        "dist": {
            "type": "zip",
            "url": "https://api.github.com/repos/Codegyre/Robo/zipball/7f929f2bd2aa166784473cea1831171c021b629c",
            "reference": "7f929f2bd2aa166784473cea1831171c021b629c",
            "shasum": ""
        },
        "require": {
            "henrikbjorn/lurker": "1.0.*@dev",
            "php": ">=5.4.0",
            "symfony/console": "~2.5",
            "symfony/filesystem": "~2.5",
            "symfony/finder": "~2.5",
            "symfony/process": "~2.5"
        },
        "require-dev": {
            "codeception/aspect-mock": "0.5.*",
            "codeception/codeception": "~2.0",
            "codeception/verify": "0.2.*",
            "natxet/cssmin": "~3.0",
            "patchwork/jsqueeze": "~1.0"
        },
        "time": "2015-06-16 21:43:42",
        "bin": [
            "robo"
        ],
        "type": "library",
        "installation-source": "source",
        "autoload": {
            "psr-4": {
                "Robo\\": "src"
            }
        },
        "notification-url": "https://packagist.org/downloads/",
        "license": [
            "MIT"
        ],
        "authors": [
            {
                "name": "Davert",
                "email": "davert.php@resend.cc"
            }
        ],
        "description": "Modern task runner"
    },
    {
        "name": "tivie/htaccess-parser",
        "version": "dev-master",
        "version_normalized": "9999999-dev",
        "source": {
            "type": "git",
            "url": "https://github.com/tivie/php-htaccess-parser.git",
            "reference": "c20ae1d244b07baaed70cd11548b9f711b874c97"
        },
        "dist": {
            "type": "zip",
            "url": "https://api.github.com/repos/tivie/php-htaccess-parser/zipball/c20ae1d244b07baaed70cd11548b9f711b874c97",
            "reference": "c20ae1d244b07baaed70cd11548b9f711b874c97",
            "shasum": ""
        },
        "require": {
            "php": ">=5.4.0"
        },
        "require-dev": {
            "phpdocumentor/phpdocumentor": "2.8.1",
            "phpunit/phpunit": "4.3.*"
        },
        "time": "2015-05-05 14:51:55",
        "type": "library",
        "installation-source": "source",
        "autoload": {
            "psr-4": {
                "Tivie\\HtaccessParser\\": "src/"
            }
        },
        "notification-url": "https://packagist.org/downloads/",
        "license": [
            "Apache-2.0"
        ],
        "authors": [
            {
                "name": "Estevão Soares dos Santos",
                "email": "estevao@soares-dos-santos.com"
            }
        ],
        "description": "A .htaccess parser and validator implemented in PHP",
        "homepage": "https://github.com/tivie/php-htaccess-parser",
        "keywords": [
            ".htaccess",
            "htaccess"
        ]
    },
    {
        "name": "rudrax/application",
        "version": "1.1.2",
        "version_normalized": "1.1.2.0",
        "source": {
            "type": "git",
            "url": "https://github.com/rudraks/application.git",
            "reference": "0ed0a1ad97c4ee92dc51b90d411a2e5798a73d8c"
        },
        "dist": {
            "type": "zip",
            "url": "https://api.github.com/repos/rudraks/application/zipball/0ed0a1ad97c4ee92dc51b90d411a2e5798a73d8c",
            "reference": "0ed0a1ad97c4ee92dc51b90d411a2e5798a73d8c",
            "shasum": ""
        },
        "require": {
            "codegyre/robo": "*",
            "rudrax/utils": ">=0.0.0",
            "tivie/htaccess-parser": "*"
        },
        "time": "2015-06-28 17:14:00",
        "type": "library",
        "installation-source": "dist",
        "autoload": {
            "psr-4": {
                "RudraX\\": "",
                "RudraX\\Tasks\\": "tasks"
            }
        },
        "notification-url": "https://packagist.org/downloads/",
        "license": [
            "MIT"
        ],
        "description": "Script to deploy Rudrax on FTP server;",
        "keywords": [
            "api",
            "controller",
            "rudra",
            "smarty"
        ]
    },
    {
        "name": "rudrax/smarty",
        "version": "v3.1.0",
        "version_normalized": "3.1.0.0",
        "source": {
            "type": "git",
            "url": "https://gitlab.com/rudrax/smarty.git",
            "reference": "22574a8ff7eaf699d4385f485238c62bb2367000"
        },
        "time": "2014-07-24 07:21:32",
        "type": "library",
        "installation-source": "source",
        "notification-url": "https://packagist.org/downloads/",
        "license": [
            "MIT"
        ],
        "description": "Modified Smarty for Rudrax",
        "keywords": [
            "api",
            "controller",
            "rudra",
            "smarty"
        ]
    },
    {
        "name": "rudrax/core",
        "version": "dev-master",
        "version_normalized": "9999999-dev",
        "source": {
            "type": "git",
            "url": "https://github.com/rudraks/core.git",
            "reference": "c5d3ab9a0b63f99676d40a784a9c6a307eb85996"
        },
        "dist": {
            "type": "zip",
            "url": "https://api.github.com/repos/rudraks/core/zipball/c5d3ab9a0b63f99676d40a784a9c6a307eb85996",
            "reference": "c5d3ab9a0b63f99676d40a784a9c6a307eb85996",
            "shasum": ""
        },
        "require": {
            "leafo/scssphp": ">=0.0.12",
            "rudrax/annotations": "1.*",
            "rudrax/application": "1.*",
            "rudrax/magicmin": "2.5.*",
            "rudrax/phpfastcache": "2.*",
            "rudrax/smarty": "3.*",
            "rudrax/utils": ">=0.0.0"
        },
        "time": "2015-06-29 08:00:13",
        "type": "library",
        "installation-source": "source",
        "notification-url": "https://packagist.org/downloads/",
        "license": [
            "MIT"
        ],
        "authors": [
            {
                "name": "Lalit Tanwar",
                "email": "lalit.tanwar07@gmail.com",
                "homepage": "http://lalittanwar.com"
            }
        ],
        "description": "Suporting library for Rudrax",
        "homepage": "http://api.spamjs.org",
        "keywords": [
            "api",
            "controller",
            "rudra",
            "smarty"
        ]
    },
    {
        "name": "rudrax/php-spam-docs",
        "version": "dev-master",
        "version_normalized": "9999999-dev",
        "source": {
            "type": "git",
            "url": "https://gitlab.com/rudrax/php-spam-docs.git",
            "reference": "7cc7393327b10d0fcc6681751f317eba546d5ec2"
        },
        "require": {
            "jqgeeks/tunnel": ">1.0.0",
            "jqtags/jq-tab": ">=0.0.0",
            "michelf/php-markdown": "1.5.0",
            "rudrax/core": ">=1.0.0"
        },
        "time": "2015-06-23 06:59:14",
        "type": "library",
        "installation-source": "source",
        "notification-url": "https://packagist.org/downloads/",
        "license": [
            "MIT"
        ],
        "description": "Spam Documnatation library",
        "keywords": [
            "api",
            "controller",
            "rudra",
            "smarty"
        ]
    },
    {
        "name": "webmodules/bootstrap",
        "version": "dev-master",
        "version_normalized": "9999999-dev",
        "source": {
            "type": "git",
            "url": "https://github.com/webmodule/bootstrap.git",
            "reference": "f337905f715e51f714bad3af937a9e7084802409"
        },
        "dist": {
            "type": "zip",
            "url": "https://api.github.com/repos/webmodule/bootstrap/zipball/f337905f715e51f714bad3af937a9e7084802409",
            "reference": "f337905f715e51f714bad3af937a9e7084802409",
            "shasum": ""
        },
        "require": {
            "webmodules/jquery": ">=2.1.2"
        },
        "suggest": {
            "fortawesome/font-awesome": "4.1.0 - Allows more advanced features",
            "kartik-v/bootstrap-star-rating": "dev-master - Allows more advanced features"
        },
        "time": "2015-06-24 07:24:52",
        "type": "library",
        "installation-source": "source",
        "notification-url": "https://packagist.org/downloads/",
        "license": [
            "MIT"
        ],
        "description": "Simply Bootstrap Fork with module.json",
        "keywords": [
            "api",
            "rudra"
        ]
    },
    {
        "name": "fortawesome/font-awesome",
        "version": "4.1.0",
        "version_normalized": "4.1.0.0",
        "source": {
            "type": "git",
            "url": "https://github.com/FortAwesome/Font-Awesome.git",
            "reference": "2649d91d18629bab071449b3bc4cb02761037a57"
        },
        "dist": {
            "type": "zip",
            "url": "https://api.github.com/repos/FortAwesome/Font-Awesome/zipball/2649d91d18629bab071449b3bc4cb02761037a57",
            "reference": "2649d91d18629bab071449b3bc4cb02761037a57",
            "shasum": ""
        },
        "require-dev": {
            "jekyll": "1.0.2",
            "lessc": "1.4.2"
        },
        "time": "2014-05-14 20:37:30",
        "type": "library",
        "extra": {
            "branch-alias": {
                "dev-master": "4.0.x-dev"
            }
        },
        "installation-source": "dist",
        "notification-url": "https://packagist.org/downloads/",
        "license": [
            "OFL-1.1",
            "MIT"
        ],
        "authors": [
            {
                "name": "Dave Gandy",
                "email": "dave@fontawesome.io",
                "homepage": "http://twitter.com/davegandy",
                "role": "Developer"
            }
        ],
        "description": "The iconic font and CSS framework",
        "homepage": "http://fontawesome.io/",
        "keywords": [
            "FontAwesome",
            "awesome",
            "bootstrap",
            "font",
            "icon"
        ]
    },
    {
        "name": "webmodules/bootstrap-social",
        "version": "dev-master",
        "version_normalized": "9999999-dev",
        "source": {
            "type": "git",
            "url": "https://gitlab.com/webmodules/bootstrap-social.git",
            "reference": "2b4e0662cd7c407c128693b289e359f66b44e94e"
        },
        "require": {
            "fortawesome/font-awesome": "4.1.0",
            "webmodules/bootstrap": ">=3.2.0"
        },
        "suggest": {
            "webmodules/bootstrap": "dev-master0 - Allows more advanced features"
        },
        "time": "2015-05-06 18:29:33",
        "type": "library",
        "installation-source": "source",
        "notification-url": "https://packagist.org/downloads/",
        "license": [
            "MIT"
        ],
        "description": "JQuery Utilitties compatible with rudrax framework",
        "keywords": [
            "api",
            "rudra"
        ]
    },
    {
        "name": "webmodules/handlebars.js",
        "version": "dev-master",
        "version_normalized": "9999999-dev",
        "source": {
            "type": "git",
            "url": "https://gitlab.com/webmodules/handlebars.js.git",
            "reference": "ffe5ec4feef477bbe0588b1967844a93e0a0e01c"
        },
        "time": "2015-05-08 14:19:45",
        "type": "library",
        "installation-source": "source",
        "notification-url": "https://packagist.org/downloads/",
        "license": [
            "MIT"
        ],
        "authors": [
            {
                "name": "Chris Wanstrath",
                "homepage": "http://chriswanstrath.com"
            }
        ],
        "description": "Handlebars.js and Mustache are both logicless templating languages that keep the view and the code separated like we all know they should be.",
        "homepage": "http://handlebarsjs.com",
        "keywords": [
            "handlebars",
            "html",
            "mustache"
        ]
    },
    {
        "name": "webmodules/dummy-json",
        "version": "dev-master",
        "version_normalized": "9999999-dev",
        "source": {
            "type": "git",
            "url": "https://gitlab.com/webmodules/dummy-json.git",
            "reference": "5084dd4b7fff9e1e164d13539216df4a4eb5daa0"
        },
        "require": {
            "webmodules/handlebars.js": ">=3.0.1"
        },
        "time": "2015-05-08 14:10:37",
        "type": "library",
        "installation-source": "source",
        "notification-url": "https://packagist.org/downloads/",
        "license": [
            "MIT"
        ],
        "description": "Dummy JSON generator and templating",
        "homepage": "https://github.com/webmodule/dummy-json",
        "keywords": [
            "api",
            "rudra"
        ]
    },
    {
        "name": "jqutils/jsonutil",
        "version": "dev-master",
        "version_normalized": "9999999-dev",
        "source": {
            "type": "git",
            "url": "https://gitlab.com/jqutils/jsonutil.git",
            "reference": "dc01dd799fa2c49b52fd943900bffe62601e3c73"
        },
        "require": {
            "webmodules/dummy-json": "dev-master"
        },
        "time": "2015-06-08 16:50:57",
        "type": "utility",
        "installation-source": "source",
        "notification-url": "https://packagist.org/downloads/",
        "license": [
            "MIT"
        ],
        "description": "utils.json interceptor to create json from json template",
        "homepage": "https://gitlab.com/jqgeeks/jsonutil",
        "keywords": [
            "jqgeeks",
            "jqutils"
        ]
    },
    {
        "name": "jqutils/cache",
        "version": "dev-master",
        "version_normalized": "9999999-dev",
        "source": {
            "type": "git",
            "url": "https://gitlab.com/jqutils/cache.git",
            "reference": "b37737c3a2d51d6e43f413e3d8ea6f8948a39b62"
        },
        "require": {
            "jqgeeks/utils": "dev-master"
        },
        "time": "2015-06-12 12:29:39",
        "type": "utility",
        "installation-source": "source",
        "notification-url": "https://packagist.org/downloads/",
        "license": [
            "MIT"
        ],
        "description": "A cache utility to manage localStorage at instance level and caching js files on browser",
        "homepage": "https://gitlab.com/jqutils/cache",
        "keywords": [
            "jqgeeks",
            "jqutils",
            "spamjs"
        ]
    },
    {
        "name": "webmodules/rivets",
        "version": "dev-master",
        "version_normalized": "9999999-dev",
        "source": {
            "type": "git",
            "url": "https://github.com/webmodule/rivets.git",
            "reference": "3d7a2b2edc1261a116f350aae3f66a178a133792"
        },
        "dist": {
            "type": "zip",
            "url": "https://api.github.com/repos/webmodule/rivets/zipball/3d7a2b2edc1261a116f350aae3f66a178a133792",
            "reference": "3d7a2b2edc1261a116f350aae3f66a178a133792",
            "shasum": ""
        },
        "time": "2015-06-24 09:42:29",
        "type": "library",
        "installation-source": "source",
        "notification-url": "https://packagist.org/downloads/",
        "license": [
            "MIT"
        ],
        "description": "Rivets.js is a lightweight data binding and templating system that facilitates building data-driven views.",
        "homepage": "http://rivetsjs.com",
        "keywords": [
            "api",
            "rudra"
        ]
    },
    {
        "name": "spamjs/module",
        "version": "dev-master",
        "version_normalized": "9999999-dev",
        "source": {
            "type": "git",
            "url": "https://gitlab.com/spamjs/module.git",
            "reference": "7da09bd16bbf0a81ec7de4c63805df83c8fb8d10"
        },
        "require": {
            "jqgeeks/utils": ">=1.2.6",
            "webmodules/rivets": ">=0.7.1"
        },
        "time": "2015-06-21 10:19:25",
        "type": "library",
        "installation-source": "source",
        "notification-url": "https://packagist.org/downloads/",
        "license": [
            "MIT"
        ],
        "description": "An MVVM framework for single-page-application",
        "keywords": [
            "api",
            "rudra"
        ]
    },
    {
        "name": "jqgeeks/jqrouter",
        "version": "dev-master",
        "version_normalized": "9999999-dev",
        "source": {
            "type": "git",
            "url": "https://gitlab.com/jqgeeks/jqrouter.git",
            "reference": "4dac7a53e4d8f51d6a44f284ad924b91b5aa712a"
        },
        "require": {
            "webmodules/foo": ">=0.0.0"
        },
        "time": "2015-04-26 19:27:23",
        "type": "utility",
        "installation-source": "source",
        "notification-url": "https://packagist.org/downloads/",
        "license": [
            "MIT"
        ],
        "description": "Simple UI URL Router",
        "keywords": [
            "controller",
            "javascript",
            "router"
        ]
    },
    {
        "name": "jqtags/jq-repeat",
        "version": "dev-master",
        "version_normalized": "9999999-dev",
        "source": {
            "type": "git",
            "url": "https://gitlab.com/jqtags/jq-repeat.git",
            "reference": "47adb2cedd495984741fd982561734d6178c55fb"
        },
        "require": {
            "jqgeeks/jqtag": ">=0.0.1",
            "jqmodules/jq2much": ">=0.0.0"
        },
        "time": "2015-06-10 19:33:00",
        "type": "tag",
        "installation-source": "source",
        "notification-url": "https://packagist.org/downloads/",
        "license": [
            "MIT"
        ],
        "description": "fancy bootstrap tab",
        "keywords": [
            "pitana",
            "polymer",
            "x-tag"
        ]
    },
    {
        "name": "webmodules/moment",
        "version": "dev-master",
        "version_normalized": "9999999-dev",
        "source": {
            "type": "git",
            "url": "https://github.com/webmodule/moment.git",
            "reference": "b4657cfcbaf578c81f682a3c91db58876398c9a1"
        },
        "dist": {
            "type": "zip",
            "url": "https://api.github.com/repos/webmodule/moment/zipball/b4657cfcbaf578c81f682a3c91db58876398c9a1",
            "reference": "b4657cfcbaf578c81f682a3c91db58876398c9a1",
            "shasum": ""
        },
        "time": "2015-06-12 09:34:56",
        "type": "library",
        "extra": {
            "component": {
                "scripts": [
                    "moment.js"
                ],
                "files": [
                    "min/*.js",
                    "locale/*.js"
                ]
            }
        },
        "installation-source": "source",
        "notification-url": "https://packagist.org/downloads/",
        "license": [
            "MIT"
        ],
        "authors": [
            {
                "name": "Tim Wood",
                "email": "washwithcare@gmail.com"
            }
        ],
        "description": "Parse, validate, manipulate, and display dates in JavaScript.",
        "homepage": "http://github.com/moment/moment/",
        "keywords": [
            "date",
            "ender",
            "format",
            "i18n",
            "l10n",
            "moment",
            "parse",
            "time",
            "validate"
        ]
    },
    {
        "name": "webmodules/pikaday",
        "version": "dev-master",
        "version_normalized": "9999999-dev",
        "source": {
            "type": "git",
            "url": "https://github.com/webmodule/pikaday.git",
            "reference": "57f4b8eef5b8239df91c9645410213542744038c"
        },
        "dist": {
            "type": "zip",
            "url": "https://api.github.com/repos/webmodule/pikaday/zipball/57f4b8eef5b8239df91c9645410213542744038c",
            "reference": "57f4b8eef5b8239df91c9645410213542744038c",
            "shasum": ""
        },
        "require": {
            "webmodules/moment": ">=2.10.4"
        },
        "time": "2015-06-12 08:39:37",
        "type": "library",
        "installation-source": "source",
        "notification-url": "https://packagist.org/downloads/",
        "license": [
            "BSD",
            "MIT"
        ],
        "description": "A refreshing JavaScript Datepicker — lightweight, no dependencies, modular CSS",
        "homepage": "http://dbushell.github.io/Pikaday/",
        "keywords": [
            "calendar",
            "date",
            "datepicker"
        ]
    },
    {
        "name": "jqtags/jq-date",
        "version": "dev-master",
        "version_normalized": "9999999-dev",
        "source": {
            "type": "git",
            "url": "https://gitlab.com/jqtags/jq-date.git",
            "reference": "8912798b172562ce7d5f086cb54017c3ae05ba9b"
        },
        "require": {
            "jqgeeks/jqtag": ">=0.0.1",
            "jqmodules/jq2much": ">=0.0.0",
            "webmodules/moment": ">=2.10.4",
            "webmodules/pikaday": ">=1.3.3"
        },
        "time": "2015-06-15 10:13:08",
        "type": "tag",
        "installation-source": "source",
        "notification-url": "https://packagist.org/downloads/",
        "license": [
            "MIT"
        ],
        "description": "advanced ajax form tag",
        "keywords": [
            "pitana",
            "polymer",
            "x-tag"
        ]
    },
    {
        "name": "seiyria/bootstrap-slider",
        "version": "dev-master",
        "version_normalized": "9999999-dev",
        "source": {
            "type": "git",
            "url": "https://github.com/jqmodules/bootstrap-slider.git",
            "reference": "cdab7e7b47469020e9a776e5d54b0e510f745b09"
        },
        "dist": {
            "type": "zip",
            "url": "https://api.github.com/repos/jqmodules/bootstrap-slider/zipball/cdab7e7b47469020e9a776e5d54b0e510f745b09",
            "reference": "cdab7e7b47469020e9a776e5d54b0e510f745b09",
            "shasum": ""
        },
        "time": "2015-06-20 05:46:33",
        "type": "library",
        "installation-source": "source",
        "notification-url": "https://packagist.org/downloads/",
        "license": [
            "Apache 2.0"
        ],
        "authors": [
            {
                "name": "Kyle Kemp",
                "email": "kyle@seiyria.com",
                "homepage": "http://seiyria.com",
                "role": "Developer"
            },
            {
                "name": "Lucas Zardo",
                "email": "lucas@deliverymuch.com.br",
                "homepage": "https://deliverymuch.com.br",
                "role": "Packagist Editor"
            },
            {
                "name": "Rohit Kalkur",
                "email": "rohit.kalkur@gmail.com",
                "homepage": "http://www.rovolutionary.com",
                "role": "Developer"
            }
        ],
        "description": "A less buggy fork of the original bootstrap slider found on http://www.eyecon.ro/ by Stefan Petre. It was forked so we could update the slider since the original wasn't under version control.",
        "homepage": "https://github.com/seiyria/bootstrap-slider",
        "keywords": [
            "bootstrap",
            "css",
            "javascript",
            "slider"
        ]
    },
    {
        "name": "jqtags/jq-slider",
        "version": "dev-master",
        "version_normalized": "9999999-dev",
        "source": {
            "type": "git",
            "url": "https://github.com/jqtags/jq-slider.git",
            "reference": "c6eb41f42347d3747ee4cb9ff0fd228db5542f22"
        },
        "dist": {
            "type": "zip",
            "url": "https://api.github.com/repos/jqtags/jq-slider/zipball/c6eb41f42347d3747ee4cb9ff0fd228db5542f22",
            "reference": "c6eb41f42347d3747ee4cb9ff0fd228db5542f22",
            "shasum": ""
        },
        "require": {
            "jqgeeks/jqtag": ">=0.0.0",
            "seiyria/bootstrap-slider": ">=0.0.0"
        },
        "time": "2015-06-29 08:07:12",
        "type": "tag",
        "installation-source": "source",
        "notification-url": "https://packagist.org/downloads/",
        "license": [
            "MIT"
        ],
        "description": "fancy bootstrap slider",
        "keywords": [
            "pitana",
            "polymer",
            "x-tag"
        ]
    },
    {
        "name": "rudrax/utils",
        "version": "dev-master",
        "version_normalized": "9999999-dev",
        "source": {
            "type": "git",
            "url": "https://github.com/rudraks/utils.git",
            "reference": "70cbcf4207086ed6b926b81893545bc027361e89"
        },
        "dist": {
            "type": "zip",
            "url": "https://api.github.com/repos/rudraks/utils/zipball/70cbcf4207086ed6b926b81893545bc027361e89",
            "reference": "70cbcf4207086ed6b926b81893545bc027361e89",
            "shasum": ""
        },
        "time": "2015-06-29 07:52:51",
        "type": "library",
        "installation-source": "source",
        "autoload": {
            "psr-4": {
                "RudraX\\Utils\\": ""
            }
        },
        "notification-url": "https://packagist.org/downloads/",
        "license": [
            "MIT"
        ],
        "description": "Common PHP Utilities",
        "keywords": [
            "api",
            "controller",
            "rudra",
            "smarty"
        ]
    }
]
